{
  "dev": {
    "build": {
      "js": {
        "files": [
          "public/js/crypto.js",
          "public/js/angular.js",
          "public/js/clipboard.js",
          "public/js/app.js",
          "public/js/controller-*.js",
          "public/js/service-*.js"
        ],
        "dist": "public/dist/js/",
        "distFile": "build.js"
      },
      "css": {
        "files": [
          "public/css/bootstrap.css",
          "public/css/fonts.css",
          "public/css/style.css",
          "public/css/font-awesome.css"
        ],
        "dist": "public/dist/css/",
        "distFile": "build.css"
      }
    },
    "copy": {
      "images": {
        "files": [
          "public/images/*"
        ],
        "dist": "public/dist/images"
      },
      "fonts": {
        "files": [
          "public/fonts/*"
        ],
        "dist": "public/dist/fonts"
      }
    }
  },
  "prod": {
    "build": {
      "js": {
        "files": [
          "public/js/crypto.js",
          "public/js/angular.js",
          "public/js/clipboard.js",
          "public/js/app.js",
          "public/js/controller-*.js",
          "public/js/service-*.js",
          "public/js/prod-script.js"
        ],
        "dist": "public/dist/js/",
        "distFile": "build.js"
      },
      "css": {
        "files": [
          "public/css/bootstrap.css",
          "public/css/fonts.css",
          "public/css/style.css",
          "public/css/font-awesome.css"
        ],
        "dist": "public/dist/css/",
        "distFile": "build.css"
      }
    },
    "copy": {
      "images": {
        "files": [
          "public/images/*"
        ],
        "dist": "public/dist/images"
      },
      "fonts": {
        "files": [
          "public/fonts/*"
        ],
        "dist": "public/dist/fonts"
      }
    }
  }
}